{
  "data": [
    {
    "serachkey": "Accommodation Ladder",
    "searchdesc": "Accommodation Ladder is a portable set of steps on a ship’s side for people boarding from small boats or from a pier."
    },
    {
    "serachkey": "Aft Peak Bulkhead",
    "searchdesc": "Aft Peak Bulkhead is a term applied to the first main transverse watertight bulkhead forward of the stern. The aft peak tank is the compartment in the narrow part of the stern aft of this last watertight bulkhead."
    },

    {
    "serachkey": "Bay",
    "searchdesc": "Bay is the area between adjacent transverse frames or transverse bulkheads."
    },

    {
    "serachkey": "Bilge Keel",
    "searchdesc": "Bilge Keel is a piece of plate set perpendicular to a ship’s shell along her bilges for about one third her length to reduce rolling."
    },
    {
    "serachkey": "Bilge Strake",
    "searchdesc": "Bilge Strake is the strake at the turn of bilge extending outward to a point where the side rises vertically."
    },
    {
    "serachkey": "Bulkhead Deck",
    "searchdesc": "Bulkhead Deck is the uppermost continuous deck to which transverse watertight bulkheads and shell are carried."
    },
    {
    "serachkey": "Bulkhead Structure",
    "searchdesc": "Bulkhead Structure is the transverse or longitudinal bulkhead plating with stiffeners and girders."
    },
    {
    "serachkey": "Bulwark",
    "searchdesc": "Bulwark is the vertical plating immediately above the upper edge of the ship’s side surrounding the exposed deck(s)."
    },
    {
    "serachkey": "Cargo Area",
    "searchdesc": "Cargo Area or Cargo Length Area is that part of the ship that contains cargo holds and cargo / slop tanks and adjacent areas including ballast tanks, fuel tanks, cofferdams, void spaces and also including deck areas throughout the entire length and breadth of the part of the ship over the mentioned spaces."
    },
    {
    "serachkey": "Cargo Length Area",
    "searchdesc": "Cargo Area or Cargo Length Area is that part of the ship that contains cargo holds and cargo / slop tanks and adjacent areas including ballast tanks, fuel tanks, cofferdams, void spaces and also including deck areas throughout the entire length and breadth of the part of the ship over the mentioned spaces."
    }
  ]
}